(kicad_pcb (version 20171130) (host pcbnew "(5.0.2)-1")

  (general
    (thickness 1.6)
    (drawings 9)
    (tracks 137)
    (zones 0)
    (modules 13)
    (nets 40)
  )

  (page A4)
  (layers
    (0 F.Cu signal)
    (31 B.Cu signal)
    (32 B.Adhes user)
    (33 F.Adhes user)
    (34 B.Paste user)
    (35 F.Paste user)
    (36 B.SilkS user)
    (37 F.SilkS user)
    (38 B.Mask user)
    (39 F.Mask user)
    (40 Dwgs.User user)
    (41 Cmts.User user)
    (42 Eco1.User user)
    (43 Eco2.User user)
    (44 Edge.Cuts user)
    (45 Margin user)
    (46 B.CrtYd user)
    (47 F.CrtYd user)
    (48 B.Fab user)
    (49 F.Fab user)
  )

  (setup
    (last_trace_width 0.25)
    (user_trace_width 0.5)
    (user_trace_width 1)
    (trace_clearance 0.2)
    (zone_clearance 0.508)
    (zone_45_only no)
    (trace_min 0.2)
    (segment_width 0.2)
    (edge_width 0.15)
    (via_size 0.8)
    (via_drill 0.4)
    (via_min_size 0.4)
    (via_min_drill 0.3)
    (uvia_size 0.3)
    (uvia_drill 0.1)
    (uvias_allowed no)
    (uvia_min_size 0.2)
    (uvia_min_drill 0.1)
    (pcb_text_width 0.3)
    (pcb_text_size 1.5 1.5)
    (mod_edge_width 0.15)
    (mod_text_size 1 1)
    (mod_text_width 0.15)
    (pad_size 1.524 1.524)
    (pad_drill 0.762)
    (pad_to_mask_clearance 0.051)
    (solder_mask_min_width 0.25)
    (aux_axis_origin 0 0)
    (grid_origin 70 160)
    (visible_elements 7FFFFFFF)
    (pcbplotparams
      (layerselection 0x010f0_ffffffff)
      (usegerberextensions false)
      (usegerberattributes false)
      (usegerberadvancedattributes false)
      (creategerberjobfile false)
      (excludeedgelayer true)
      (linewidth 0.100000)
      (plotframeref false)
      (viasonmask false)
      (mode 1)
      (useauxorigin false)
      (hpglpennumber 1)
      (hpglpenspeed 20)
      (hpglpendiameter 15.000000)
      (psnegative false)
      (psa4output false)
      (plotreference true)
      (plotvalue true)
      (plotinvisibletext false)
      (padsonsilk false)
      (subtractmaskfromsilk false)
      (outputformat 1)
      (mirror false)
      (drillshape 0)
      (scaleselection 1)
      (outputdirectory "/gerbers"))
  )

  (net 0 "")
  (net 1 "Net-(U1-Pad1)")
  (net 2 "Net-(U1-Pad2)")
  (net 3 "Net-(U1-Pad3)")
  (net 4 "Net-(U1-Pad4)")
  (net 5 "Net-(U1-Pad5)")
  (net 6 "Net-(U1-Pad6)")
  (net 7 "Net-(U1-Pad7)")
  (net 8 "Net-(U1-Pad8)")
  (net 9 "Net-(U1-Pad9)")
  (net 10 "Net-(U1-Pad12)")
  (net 11 "Net-(U1-Pad13)")
  (net 12 "Net-(U1-Pad20)")
  (net 13 "Net-(U1-Pad21)")
  (net 14 "Net-(U1-Pad22)")
  (net 15 "Net-(U1-Pad23)")
  (net 16 "Net-(U1-Pad25)")
  (net 17 "Net-(U1-Pad26)")
  (net 18 "Net-(U1-Pad27)")
  (net 19 "Net-(U1-Pad28)")
  (net 20 "Net-(J1-Pad1)")
  (net 21 GNDD)
  (net 22 "Net-(J2-Pad2)")
  (net 23 "Net-(J3-Pad1)")
  (net 24 +3V3)
  (net 25 /RS485_A)
  (net 26 /RS485_B)
  (net 27 "Net-(U3-Pad1)")
  (net 28 "Net-(U3-Pad8)")
  (net 29 "Net-(J3-Pad2)")
  (net 30 "Net-(J2-Pad1)")
  (net 31 /LED_WIFI)
  (net 32 "Net-(D1-Pad2)")
  (net 33 "Net-(D2-Pad2)")
  (net 34 /LED_COM)
  (net 35 "Net-(D3-Pad2)")
  (net 36 "Net-(U1-Pad10)")
  (net 37 "Net-(U1-Pad14)")
  (net 38 "Net-(U1-Pad17)")
  (net 39 "Net-(U1-Pad11)")

  (net_class Default "This is the default net class."
    (clearance 0.2)
    (trace_width 0.25)
    (via_dia 0.8)
    (via_drill 0.4)
    (uvia_dia 0.3)
    (uvia_drill 0.1)
    (add_net +3V3)
    (add_net /LED_COM)
    (add_net /LED_WIFI)
    (add_net /RS485_A)
    (add_net /RS485_B)
    (add_net GNDD)
    (add_net "Net-(D1-Pad2)")
    (add_net "Net-(D2-Pad2)")
    (add_net "Net-(D3-Pad2)")
    (add_net "Net-(J1-Pad1)")
    (add_net "Net-(J2-Pad1)")
    (add_net "Net-(J2-Pad2)")
    (add_net "Net-(J3-Pad1)")
    (add_net "Net-(J3-Pad2)")
    (add_net "Net-(U1-Pad1)")
    (add_net "Net-(U1-Pad10)")
    (add_net "Net-(U1-Pad11)")
    (add_net "Net-(U1-Pad12)")
    (add_net "Net-(U1-Pad13)")
    (add_net "Net-(U1-Pad14)")
    (add_net "Net-(U1-Pad17)")
    (add_net "Net-(U1-Pad2)")
    (add_net "Net-(U1-Pad20)")
    (add_net "Net-(U1-Pad21)")
    (add_net "Net-(U1-Pad22)")
    (add_net "Net-(U1-Pad23)")
    (add_net "Net-(U1-Pad25)")
    (add_net "Net-(U1-Pad26)")
    (add_net "Net-(U1-Pad27)")
    (add_net "Net-(U1-Pad28)")
    (add_net "Net-(U1-Pad3)")
    (add_net "Net-(U1-Pad4)")
    (add_net "Net-(U1-Pad5)")
    (add_net "Net-(U1-Pad6)")
    (add_net "Net-(U1-Pad7)")
    (add_net "Net-(U1-Pad8)")
    (add_net "Net-(U1-Pad9)")
    (add_net "Net-(U3-Pad1)")
    (add_net "Net-(U3-Pad8)")
  )

  (module SparkFun-Footprints:SF-MICRO-SD (layer F.Cu) (tedit 5686EB8B) (tstamp 5CA72592)
    (at 81.28 140.97 180)
    (path /5CA62508)
    (fp_text reference U3 (at -7 -5 180) (layer F.SilkS)
      (effects (font (size 1 1) (thickness 0.15)))
    )
    (fp_text value SF-MicroSD (at -7 -7 180) (layer F.Fab)
      (effects (font (size 1 1) (thickness 0.15)))
    )
    (fp_arc (start -11.7 -14.6) (end -11.7 -15.3) (angle 90) (layer F.SilkS) (width 0.15))
    (fp_arc (start -10 -14.6) (end -10 -13.6) (angle 90) (layer F.SilkS) (width 0.15))
    (fp_line (start -12.5 -15.3) (end -11.7 -15.3) (layer F.SilkS) (width 0.15))
    (fp_line (start -10 -13.6) (end -1.6 -13.6) (layer F.SilkS) (width 0.15))
    (fp_line (start 0 0) (end 0 -12.2) (layer F.SilkS) (width 0.15))
    (fp_line (start -0.7 0) (end 0 0) (layer F.SilkS) (width 0.15))
    (fp_line (start -6.4 0) (end -3.4 0) (layer F.SilkS) (width 0.15))
    (fp_line (start -14 0) (end -9.1 0) (layer F.SilkS) (width 0.15))
    (fp_line (start -14 0) (end -14 -13.2) (layer F.SilkS) (width 0.15))
    (pad 1 smd rect (at -8.94 -10.7 270) (size 1.5 0.8) (layers F.Cu F.Paste F.Mask)
      (net 27 "Net-(U3-Pad1)"))
    (pad 2 smd rect (at -7.84 -10.3 270) (size 1.5 0.8) (layers F.Cu F.Paste F.Mask)
      (net 19 "Net-(U1-Pad28)"))
    (pad 3 smd rect (at -6.74 -10.7 270) (size 1.5 0.8) (layers F.Cu F.Paste F.Mask)
      (net 14 "Net-(U1-Pad22)"))
    (pad 4 smd rect (at -5.64 -10.9 270) (size 1.5 0.8) (layers F.Cu F.Paste F.Mask)
      (net 24 +3V3))
    (pad 5 smd rect (at -4.54 -10.7 270) (size 1.5 0.8) (layers F.Cu F.Paste F.Mask)
      (net 15 "Net-(U1-Pad23)"))
    (pad 6 smd rect (at -3.44 -10.9 270) (size 1.5 0.8) (layers F.Cu F.Paste F.Mask)
      (net 21 GNDD))
    (pad 7 smd rect (at -2.34 -10.7 270) (size 1.5 0.8) (layers F.Cu F.Paste F.Mask)
      (net 13 "Net-(U1-Pad21)"))
    (pad 8 smd rect (at -1.24 -10.7 270) (size 1.5 0.8) (layers F.Cu F.Paste F.Mask)
      (net 28 "Net-(U3-Pad8)"))
    (pad 9 smd rect (at -0.45 -13.55 270) (size 1.9 1.4) (layers F.Cu F.Paste F.Mask))
    (pad 10 smd rect (at -2.05 -0.4 180) (size 1.9 1.4) (layers F.Cu F.Paste F.Mask))
    (pad 11 smd rect (at -7.75 -0.4 180) (size 1.9 1.4) (layers F.Cu F.Paste F.Mask))
    (pad 12 smd rect (at -13.6 -14.55 270) (size 1.9 1.4) (layers F.Cu F.Paste F.Mask))
  )

  (module LED_THT:LED_D3.0mm (layer F.Cu) (tedit 587A3A7B) (tstamp 5CA82939)
    (at 154.94 137.16 90)
    (descr "LED, diameter 3.0mm, 2 pins")
    (tags "LED diameter 3.0mm 2 pins")
    (path /5CA740BD)
    (fp_text reference D3 (at 1.27 -2.96 90) (layer F.SilkS)
      (effects (font (size 1 1) (thickness 0.15)))
    )
    (fp_text value LED_PWR (at 1.27 2.96 90) (layer F.Fab)
      (effects (font (size 1 1) (thickness 0.15)))
    )
    (fp_arc (start 1.27 0) (end -0.23 -1.16619) (angle 284.3) (layer F.Fab) (width 0.1))
    (fp_arc (start 1.27 0) (end -0.29 -1.235516) (angle 108.8) (layer F.SilkS) (width 0.12))
    (fp_arc (start 1.27 0) (end -0.29 1.235516) (angle -108.8) (layer F.SilkS) (width 0.12))
    (fp_arc (start 1.27 0) (end 0.229039 -1.08) (angle 87.9) (layer F.SilkS) (width 0.12))
    (fp_arc (start 1.27 0) (end 0.229039 1.08) (angle -87.9) (layer F.SilkS) (width 0.12))
    (fp_circle (center 1.27 0) (end 2.77 0) (layer F.Fab) (width 0.1))
    (fp_line (start -0.23 -1.16619) (end -0.23 1.16619) (layer F.Fab) (width 0.1))
    (fp_line (start -0.29 -1.236) (end -0.29 -1.08) (layer F.SilkS) (width 0.12))
    (fp_line (start -0.29 1.08) (end -0.29 1.236) (layer F.SilkS) (width 0.12))
    (fp_line (start -1.15 -2.25) (end -1.15 2.25) (layer F.CrtYd) (width 0.05))
    (fp_line (start -1.15 2.25) (end 3.7 2.25) (layer F.CrtYd) (width 0.05))
    (fp_line (start 3.7 2.25) (end 3.7 -2.25) (layer F.CrtYd) (width 0.05))
    (fp_line (start 3.7 -2.25) (end -1.15 -2.25) (layer F.CrtYd) (width 0.05))
    (pad 1 thru_hole rect (at 0 0 90) (size 1.8 1.8) (drill 0.9) (layers *.Cu *.Mask)
      (net 21 GNDD))
    (pad 2 thru_hole circle (at 2.54 0 90) (size 1.8 1.8) (drill 0.9) (layers *.Cu *.Mask)
      (net 35 "Net-(D3-Pad2)"))
    (model ${KISYS3DMOD}/LED_THT.3dshapes/LED_D3.0mm.wrl
      (at (xyz 0 0 0))
      (scale (xyz 1 1 1))
      (rotate (xyz 0 0 0))
    )
  )

  (module LED_THT:LED_D3.0mm (layer F.Cu) (tedit 587A3A7B) (tstamp 5CA82926)
    (at 147.32 137.16 90)
    (descr "LED, diameter 3.0mm, 2 pins")
    (tags "LED diameter 3.0mm 2 pins")
    (path /5CA7206A)
    (fp_text reference D2 (at 1.27 -2.96 90) (layer F.SilkS)
      (effects (font (size 1 1) (thickness 0.15)))
    )
    (fp_text value LED_COM (at 1.27 2.96 90) (layer F.Fab)
      (effects (font (size 1 1) (thickness 0.15)))
    )
    (fp_line (start 3.7 -2.25) (end -1.15 -2.25) (layer F.CrtYd) (width 0.05))
    (fp_line (start 3.7 2.25) (end 3.7 -2.25) (layer F.CrtYd) (width 0.05))
    (fp_line (start -1.15 2.25) (end 3.7 2.25) (layer F.CrtYd) (width 0.05))
    (fp_line (start -1.15 -2.25) (end -1.15 2.25) (layer F.CrtYd) (width 0.05))
    (fp_line (start -0.29 1.08) (end -0.29 1.236) (layer F.SilkS) (width 0.12))
    (fp_line (start -0.29 -1.236) (end -0.29 -1.08) (layer F.SilkS) (width 0.12))
    (fp_line (start -0.23 -1.16619) (end -0.23 1.16619) (layer F.Fab) (width 0.1))
    (fp_circle (center 1.27 0) (end 2.77 0) (layer F.Fab) (width 0.1))
    (fp_arc (start 1.27 0) (end 0.229039 1.08) (angle -87.9) (layer F.SilkS) (width 0.12))
    (fp_arc (start 1.27 0) (end 0.229039 -1.08) (angle 87.9) (layer F.SilkS) (width 0.12))
    (fp_arc (start 1.27 0) (end -0.29 1.235516) (angle -108.8) (layer F.SilkS) (width 0.12))
    (fp_arc (start 1.27 0) (end -0.29 -1.235516) (angle 108.8) (layer F.SilkS) (width 0.12))
    (fp_arc (start 1.27 0) (end -0.23 -1.16619) (angle 284.3) (layer F.Fab) (width 0.1))
    (pad 2 thru_hole circle (at 2.54 0 90) (size 1.8 1.8) (drill 0.9) (layers *.Cu *.Mask)
      (net 33 "Net-(D2-Pad2)"))
    (pad 1 thru_hole rect (at 0 0 90) (size 1.8 1.8) (drill 0.9) (layers *.Cu *.Mask)
      (net 21 GNDD))
    (model ${KISYS3DMOD}/LED_THT.3dshapes/LED_D3.0mm.wrl
      (at (xyz 0 0 0))
      (scale (xyz 1 1 1))
      (rotate (xyz 0 0 0))
    )
  )

  (module LED_THT:LED_D3.0mm (layer F.Cu) (tedit 587A3A7B) (tstamp 5CA82913)
    (at 139.7 137.16 90)
    (descr "LED, diameter 3.0mm, 2 pins")
    (tags "LED diameter 3.0mm 2 pins")
    (path /5CA75019)
    (fp_text reference D1 (at 1.27 -2.96 90) (layer F.SilkS)
      (effects (font (size 1 1) (thickness 0.15)))
    )
    (fp_text value LED_WIFI (at 1.27 2.96 90) (layer F.Fab)
      (effects (font (size 1 1) (thickness 0.15)))
    )
    (fp_arc (start 1.27 0) (end -0.23 -1.16619) (angle 284.3) (layer F.Fab) (width 0.1))
    (fp_arc (start 1.27 0) (end -0.29 -1.235516) (angle 108.8) (layer F.SilkS) (width 0.12))
    (fp_arc (start 1.27 0) (end -0.29 1.235516) (angle -108.8) (layer F.SilkS) (width 0.12))
    (fp_arc (start 1.27 0) (end 0.229039 -1.08) (angle 87.9) (layer F.SilkS) (width 0.12))
    (fp_arc (start 1.27 0) (end 0.229039 1.08) (angle -87.9) (layer F.SilkS) (width 0.12))
    (fp_circle (center 1.27 0) (end 2.77 0) (layer F.Fab) (width 0.1))
    (fp_line (start -0.23 -1.16619) (end -0.23 1.16619) (layer F.Fab) (width 0.1))
    (fp_line (start -0.29 -1.236) (end -0.29 -1.08) (layer F.SilkS) (width 0.12))
    (fp_line (start -0.29 1.08) (end -0.29 1.236) (layer F.SilkS) (width 0.12))
    (fp_line (start -1.15 -2.25) (end -1.15 2.25) (layer F.CrtYd) (width 0.05))
    (fp_line (start -1.15 2.25) (end 3.7 2.25) (layer F.CrtYd) (width 0.05))
    (fp_line (start 3.7 2.25) (end 3.7 -2.25) (layer F.CrtYd) (width 0.05))
    (fp_line (start 3.7 -2.25) (end -1.15 -2.25) (layer F.CrtYd) (width 0.05))
    (pad 1 thru_hole rect (at 0 0 90) (size 1.8 1.8) (drill 0.9) (layers *.Cu *.Mask)
      (net 21 GNDD))
    (pad 2 thru_hole circle (at 2.54 0 90) (size 1.8 1.8) (drill 0.9) (layers *.Cu *.Mask)
      (net 32 "Net-(D1-Pad2)"))
    (model ${KISYS3DMOD}/LED_THT.3dshapes/LED_D3.0mm.wrl
      (at (xyz 0 0 0))
      (scale (xyz 1 1 1))
      (rotate (xyz 0 0 0))
    )
  )

  (module Capacitor_SMD:C_0805_2012Metric_Pad1.15x1.40mm_HandSolder (layer F.Cu) (tedit 5B36C52B) (tstamp 5CA81183)
    (at 78.74 147.32 270)
    (descr "Capacitor SMD 0805 (2012 Metric), square (rectangular) end terminal, IPC_7351 nominal with elongated pad for handsoldering. (Body size source: https://docs.google.com/spreadsheets/d/1BsfQQcO9C6DZCsRaXUlFlo91Tg2WpOkGARC1WS5S8t0/edit?usp=sharing), generated with kicad-footprint-generator")
    (tags "capacitor handsolder")
    (path /5CA6A3DC)
    (attr smd)
    (fp_text reference C1 (at 0 -1.65 270) (layer F.SilkS)
      (effects (font (size 1 1) (thickness 0.15)))
    )
    (fp_text value 2.2uF (at 0 1.65 270) (layer F.Fab)
      (effects (font (size 1 1) (thickness 0.15)))
    )
    (fp_line (start -1 0.6) (end -1 -0.6) (layer F.Fab) (width 0.1))
    (fp_line (start -1 -0.6) (end 1 -0.6) (layer F.Fab) (width 0.1))
    (fp_line (start 1 -0.6) (end 1 0.6) (layer F.Fab) (width 0.1))
    (fp_line (start 1 0.6) (end -1 0.6) (layer F.Fab) (width 0.1))
    (fp_line (start -0.261252 -0.71) (end 0.261252 -0.71) (layer F.SilkS) (width 0.12))
    (fp_line (start -0.261252 0.71) (end 0.261252 0.71) (layer F.SilkS) (width 0.12))
    (fp_line (start -1.85 0.95) (end -1.85 -0.95) (layer F.CrtYd) (width 0.05))
    (fp_line (start -1.85 -0.95) (end 1.85 -0.95) (layer F.CrtYd) (width 0.05))
    (fp_line (start 1.85 -0.95) (end 1.85 0.95) (layer F.CrtYd) (width 0.05))
    (fp_line (start 1.85 0.95) (end -1.85 0.95) (layer F.CrtYd) (width 0.05))
    (fp_text user %R (at 0 0 270) (layer F.Fab)
      (effects (font (size 0.5 0.5) (thickness 0.08)))
    )
    (pad 1 smd roundrect (at -1.025 0 270) (size 1.15 1.4) (layers F.Cu F.Paste F.Mask) (roundrect_rratio 0.217391)
      (net 24 +3V3))
    (pad 2 smd roundrect (at 1.025 0 270) (size 1.15 1.4) (layers F.Cu F.Paste F.Mask) (roundrect_rratio 0.217391)
      (net 21 GNDD))
    (model ${KISYS3DMOD}/Capacitor_SMD.3dshapes/C_0805_2012Metric.wrl
      (at (xyz 0 0 0))
      (scale (xyz 1 1 1))
      (rotate (xyz 0 0 0))
    )
  )

  (module Connector_PinHeader_2.54mm:PinHeader_1x02_P2.54mm_Vertical (layer F.Cu) (tedit 59FED5CC) (tstamp 5CA81172)
    (at 101.6 144.78 270)
    (descr "Through hole straight pin header, 1x02, 2.54mm pitch, single row")
    (tags "Through hole pin header THT 1x02 2.54mm single row")
    (path /5CA54BD8)
    (fp_text reference J3 (at 0 -2.33 270) (layer F.SilkS)
      (effects (font (size 1 1) (thickness 0.15)))
    )
    (fp_text value Conn_01x02 (at 0 4.87 270) (layer F.Fab)
      (effects (font (size 1 1) (thickness 0.15)))
    )
    (fp_text user %R (at 0 1.27) (layer F.Fab)
      (effects (font (size 1 1) (thickness 0.15)))
    )
    (fp_line (start 1.8 -1.8) (end -1.8 -1.8) (layer F.CrtYd) (width 0.05))
    (fp_line (start 1.8 4.35) (end 1.8 -1.8) (layer F.CrtYd) (width 0.05))
    (fp_line (start -1.8 4.35) (end 1.8 4.35) (layer F.CrtYd) (width 0.05))
    (fp_line (start -1.8 -1.8) (end -1.8 4.35) (layer F.CrtYd) (width 0.05))
    (fp_line (start -1.33 -1.33) (end 0 -1.33) (layer F.SilkS) (width 0.12))
    (fp_line (start -1.33 0) (end -1.33 -1.33) (layer F.SilkS) (width 0.12))
    (fp_line (start -1.33 1.27) (end 1.33 1.27) (layer F.SilkS) (width 0.12))
    (fp_line (start 1.33 1.27) (end 1.33 3.87) (layer F.SilkS) (width 0.12))
    (fp_line (start -1.33 1.27) (end -1.33 3.87) (layer F.SilkS) (width 0.12))
    (fp_line (start -1.33 3.87) (end 1.33 3.87) (layer F.SilkS) (width 0.12))
    (fp_line (start -1.27 -0.635) (end -0.635 -1.27) (layer F.Fab) (width 0.1))
    (fp_line (start -1.27 3.81) (end -1.27 -0.635) (layer F.Fab) (width 0.1))
    (fp_line (start 1.27 3.81) (end -1.27 3.81) (layer F.Fab) (width 0.1))
    (fp_line (start 1.27 -1.27) (end 1.27 3.81) (layer F.Fab) (width 0.1))
    (fp_line (start -0.635 -1.27) (end 1.27 -1.27) (layer F.Fab) (width 0.1))
    (pad 2 thru_hole oval (at 0 2.54 270) (size 1.7 1.7) (drill 1) (layers *.Cu *.Mask)
      (net 29 "Net-(J3-Pad2)"))
    (pad 1 thru_hole rect (at 0 0 270) (size 1.7 1.7) (drill 1) (layers *.Cu *.Mask)
      (net 23 "Net-(J3-Pad1)"))
    (model ${KISYS3DMOD}/Connector_PinHeader_2.54mm.3dshapes/PinHeader_1x02_P2.54mm_Vertical.wrl
      (at (xyz 0 0 0))
      (scale (xyz 1 1 1))
      (rotate (xyz 0 0 0))
    )
  )

  (module Connector_PinHeader_2.54mm:PinHeader_1x02_P2.54mm_Vertical (layer F.Cu) (tedit 59FED5CC) (tstamp 5CA8115C)
    (at 99.06 152.4 90)
    (descr "Through hole straight pin header, 1x02, 2.54mm pitch, single row")
    (tags "Through hole pin header THT 1x02 2.54mm single row")
    (path /5CA54AF5)
    (fp_text reference J2 (at 0 -2.33 90) (layer F.SilkS)
      (effects (font (size 1 1) (thickness 0.15)))
    )
    (fp_text value Conn_01x02 (at 0 4.87 90) (layer F.Fab)
      (effects (font (size 1 1) (thickness 0.15)))
    )
    (fp_line (start -0.635 -1.27) (end 1.27 -1.27) (layer F.Fab) (width 0.1))
    (fp_line (start 1.27 -1.27) (end 1.27 3.81) (layer F.Fab) (width 0.1))
    (fp_line (start 1.27 3.81) (end -1.27 3.81) (layer F.Fab) (width 0.1))
    (fp_line (start -1.27 3.81) (end -1.27 -0.635) (layer F.Fab) (width 0.1))
    (fp_line (start -1.27 -0.635) (end -0.635 -1.27) (layer F.Fab) (width 0.1))
    (fp_line (start -1.33 3.87) (end 1.33 3.87) (layer F.SilkS) (width 0.12))
    (fp_line (start -1.33 1.27) (end -1.33 3.87) (layer F.SilkS) (width 0.12))
    (fp_line (start 1.33 1.27) (end 1.33 3.87) (layer F.SilkS) (width 0.12))
    (fp_line (start -1.33 1.27) (end 1.33 1.27) (layer F.SilkS) (width 0.12))
    (fp_line (start -1.33 0) (end -1.33 -1.33) (layer F.SilkS) (width 0.12))
    (fp_line (start -1.33 -1.33) (end 0 -1.33) (layer F.SilkS) (width 0.12))
    (fp_line (start -1.8 -1.8) (end -1.8 4.35) (layer F.CrtYd) (width 0.05))
    (fp_line (start -1.8 4.35) (end 1.8 4.35) (layer F.CrtYd) (width 0.05))
    (fp_line (start 1.8 4.35) (end 1.8 -1.8) (layer F.CrtYd) (width 0.05))
    (fp_line (start 1.8 -1.8) (end -1.8 -1.8) (layer F.CrtYd) (width 0.05))
    (fp_text user %R (at 0 1.27 180) (layer F.Fab)
      (effects (font (size 1 1) (thickness 0.15)))
    )
    (pad 1 thru_hole rect (at 0 0 90) (size 1.7 1.7) (drill 1) (layers *.Cu *.Mask)
      (net 30 "Net-(J2-Pad1)"))
    (pad 2 thru_hole oval (at 0 2.54 90) (size 1.7 1.7) (drill 1) (layers *.Cu *.Mask)
      (net 22 "Net-(J2-Pad2)"))
    (model ${KISYS3DMOD}/Connector_PinHeader_2.54mm.3dshapes/PinHeader_1x02_P2.54mm_Vertical.wrl
      (at (xyz 0 0 0))
      (scale (xyz 1 1 1))
      (rotate (xyz 0 0 0))
    )
  )

  (module Resistor_SMD:R_0805_2012Metric_Pad1.15x1.40mm_HandSolder (layer F.Cu) (tedit 5B36C52B) (tstamp 5CA810B6)
    (at 154.94 129.54 270)
    (descr "Resistor SMD 0805 (2012 Metric), square (rectangular) end terminal, IPC_7351 nominal with elongated pad for handsoldering. (Body size source: https://docs.google.com/spreadsheets/d/1BsfQQcO9C6DZCsRaXUlFlo91Tg2WpOkGARC1WS5S8t0/edit?usp=sharing), generated with kicad-footprint-generator")
    (tags "resistor handsolder")
    (path /5CA92159)
    (attr smd)
    (fp_text reference R3 (at 0 -1.65 270) (layer F.SilkS)
      (effects (font (size 1 1) (thickness 0.15)))
    )
    (fp_text value 4.7K (at 0 1.65 270) (layer F.Fab)
      (effects (font (size 1 1) (thickness 0.15)))
    )
    (fp_line (start -1 0.6) (end -1 -0.6) (layer F.Fab) (width 0.1))
    (fp_line (start -1 -0.6) (end 1 -0.6) (layer F.Fab) (width 0.1))
    (fp_line (start 1 -0.6) (end 1 0.6) (layer F.Fab) (width 0.1))
    (fp_line (start 1 0.6) (end -1 0.6) (layer F.Fab) (width 0.1))
    (fp_line (start -0.261252 -0.71) (end 0.261252 -0.71) (layer F.SilkS) (width 0.12))
    (fp_line (start -0.261252 0.71) (end 0.261252 0.71) (layer F.SilkS) (width 0.12))
    (fp_line (start -1.85 0.95) (end -1.85 -0.95) (layer F.CrtYd) (width 0.05))
    (fp_line (start -1.85 -0.95) (end 1.85 -0.95) (layer F.CrtYd) (width 0.05))
    (fp_line (start 1.85 -0.95) (end 1.85 0.95) (layer F.CrtYd) (width 0.05))
    (fp_line (start 1.85 0.95) (end -1.85 0.95) (layer F.CrtYd) (width 0.05))
    (fp_text user %R (at 0 0 270) (layer F.Fab)
      (effects (font (size 0.5 0.5) (thickness 0.08)))
    )
    (pad 1 smd roundrect (at -1.025 0 270) (size 1.15 1.4) (layers F.Cu F.Paste F.Mask) (roundrect_rratio 0.217391)
      (net 24 +3V3))
    (pad 2 smd roundrect (at 1.025 0 270) (size 1.15 1.4) (layers F.Cu F.Paste F.Mask) (roundrect_rratio 0.217391)
      (net 35 "Net-(D3-Pad2)"))
    (model ${KISYS3DMOD}/Resistor_SMD.3dshapes/R_0805_2012Metric.wrl
      (at (xyz 0 0 0))
      (scale (xyz 1 1 1))
      (rotate (xyz 0 0 0))
    )
  )

  (module Resistor_SMD:R_0805_2012Metric_Pad1.15x1.40mm_HandSolder (layer F.Cu) (tedit 5B36C52B) (tstamp 5CA810A5)
    (at 147.32 129.54 270)
    (descr "Resistor SMD 0805 (2012 Metric), square (rectangular) end terminal, IPC_7351 nominal with elongated pad for handsoldering. (Body size source: https://docs.google.com/spreadsheets/d/1BsfQQcO9C6DZCsRaXUlFlo91Tg2WpOkGARC1WS5S8t0/edit?usp=sharing), generated with kicad-footprint-generator")
    (tags "resistor handsolder")
    (path /5CA90B1E)
    (attr smd)
    (fp_text reference R2 (at 0 -1.65 270) (layer F.SilkS)
      (effects (font (size 1 1) (thickness 0.15)))
    )
    (fp_text value 4.7K (at 0 1.65 270) (layer F.Fab)
      (effects (font (size 1 1) (thickness 0.15)))
    )
    (fp_text user %R (at 0 0 270) (layer F.Fab)
      (effects (font (size 0.5 0.5) (thickness 0.08)))
    )
    (fp_line (start 1.85 0.95) (end -1.85 0.95) (layer F.CrtYd) (width 0.05))
    (fp_line (start 1.85 -0.95) (end 1.85 0.95) (layer F.CrtYd) (width 0.05))
    (fp_line (start -1.85 -0.95) (end 1.85 -0.95) (layer F.CrtYd) (width 0.05))
    (fp_line (start -1.85 0.95) (end -1.85 -0.95) (layer F.CrtYd) (width 0.05))
    (fp_line (start -0.261252 0.71) (end 0.261252 0.71) (layer F.SilkS) (width 0.12))
    (fp_line (start -0.261252 -0.71) (end 0.261252 -0.71) (layer F.SilkS) (width 0.12))
    (fp_line (start 1 0.6) (end -1 0.6) (layer F.Fab) (width 0.1))
    (fp_line (start 1 -0.6) (end 1 0.6) (layer F.Fab) (width 0.1))
    (fp_line (start -1 -0.6) (end 1 -0.6) (layer F.Fab) (width 0.1))
    (fp_line (start -1 0.6) (end -1 -0.6) (layer F.Fab) (width 0.1))
    (pad 2 smd roundrect (at 1.025 0 270) (size 1.15 1.4) (layers F.Cu F.Paste F.Mask) (roundrect_rratio 0.217391)
      (net 33 "Net-(D2-Pad2)"))
    (pad 1 smd roundrect (at -1.025 0 270) (size 1.15 1.4) (layers F.Cu F.Paste F.Mask) (roundrect_rratio 0.217391)
      (net 34 /LED_COM))
    (model ${KISYS3DMOD}/Resistor_SMD.3dshapes/R_0805_2012Metric.wrl
      (at (xyz 0 0 0))
      (scale (xyz 1 1 1))
      (rotate (xyz 0 0 0))
    )
  )

  (module Resistor_SMD:R_0805_2012Metric_Pad1.15x1.40mm_HandSolder (layer F.Cu) (tedit 5B36C52B) (tstamp 5CA81094)
    (at 139.7 129.54 270)
    (descr "Resistor SMD 0805 (2012 Metric), square (rectangular) end terminal, IPC_7351 nominal with elongated pad for handsoldering. (Body size source: https://docs.google.com/spreadsheets/d/1BsfQQcO9C6DZCsRaXUlFlo91Tg2WpOkGARC1WS5S8t0/edit?usp=sharing), generated with kicad-footprint-generator")
    (tags "resistor handsolder")
    (path /5CA89B56)
    (attr smd)
    (fp_text reference R1 (at 0 -1.65 270) (layer F.SilkS)
      (effects (font (size 1 1) (thickness 0.15)))
    )
    (fp_text value 4.7K (at 0 1.65 270) (layer F.Fab)
      (effects (font (size 1 1) (thickness 0.15)))
    )
    (fp_line (start -1 0.6) (end -1 -0.6) (layer F.Fab) (width 0.1))
    (fp_line (start -1 -0.6) (end 1 -0.6) (layer F.Fab) (width 0.1))
    (fp_line (start 1 -0.6) (end 1 0.6) (layer F.Fab) (width 0.1))
    (fp_line (start 1 0.6) (end -1 0.6) (layer F.Fab) (width 0.1))
    (fp_line (start -0.261252 -0.71) (end 0.261252 -0.71) (layer F.SilkS) (width 0.12))
    (fp_line (start -0.261252 0.71) (end 0.261252 0.71) (layer F.SilkS) (width 0.12))
    (fp_line (start -1.85 0.95) (end -1.85 -0.95) (layer F.CrtYd) (width 0.05))
    (fp_line (start -1.85 -0.95) (end 1.85 -0.95) (layer F.CrtYd) (width 0.05))
    (fp_line (start 1.85 -0.95) (end 1.85 0.95) (layer F.CrtYd) (width 0.05))
    (fp_line (start 1.85 0.95) (end -1.85 0.95) (layer F.CrtYd) (width 0.05))
    (fp_text user %R (at 0 0 270) (layer F.Fab)
      (effects (font (size 0.5 0.5) (thickness 0.08)))
    )
    (pad 1 smd roundrect (at -1.025 0 270) (size 1.15 1.4) (layers F.Cu F.Paste F.Mask) (roundrect_rratio 0.217391)
      (net 31 /LED_WIFI))
    (pad 2 smd roundrect (at 1.025 0 270) (size 1.15 1.4) (layers F.Cu F.Paste F.Mask) (roundrect_rratio 0.217391)
      (net 32 "Net-(D1-Pad2)"))
    (model ${KISYS3DMOD}/Resistor_SMD.3dshapes/R_0805_2012Metric.wrl
      (at (xyz 0 0 0))
      (scale (xyz 1 1 1))
      (rotate (xyz 0 0 0))
    )
  )

  (module glue_dispenser:rj45_52-8P8C (layer F.Cu) (tedit 5C917235) (tstamp 5CA2F60C)
    (at 153.67 118.11 270)
    (path /5CA2E628)
    (fp_text reference J1 (at 0.62 -2.13 270) (layer F.SilkS)
      (effects (font (size 1 1) (thickness 0.15)))
    )
    (fp_text value RJ45 (at 0.381 -3.683 270) (layer F.Fab)
      (effects (font (size 1 1) (thickness 0.15)))
    )
    (fp_line (start -7.65 -1.15) (end 7.65 -1.15) (layer F.Fab) (width 0.1))
    (fp_line (start 7.65 -1.15) (end 7.65 15.35) (layer F.Fab) (width 0.1))
    (fp_line (start 7.65 15.35) (end -7.65 15.35) (layer F.Fab) (width 0.1))
    (fp_line (start -7.65 15.35) (end -7.65 -1.15) (layer F.Fab) (width 0.1))
    (fp_line (start 7.8 15.5) (end 7.8 -1.3) (layer F.SilkS) (width 0.1))
    (fp_line (start 7.8 -1.3) (end -7.8 -1.3) (layer F.SilkS) (width 0.1))
    (fp_line (start -7.8 -1.3) (end -7.8 15.5) (layer F.SilkS) (width 0.1))
    (fp_line (start -7.8 15.5) (end 7.8 15.5) (layer F.SilkS) (width 0.1))
    (pad "" np_thru_hole circle (at -5.715 8.89 270) (size 3.3 3.3) (drill 3.3) (layers *.Cu *.Mask))
    (pad "" np_thru_hole circle (at 5.715 8.89 270) (size 3.3 3.3) (drill 3.3) (layers *.Cu *.Mask))
    (pad 1 thru_hole rect (at -4.445 2.54 270) (size 1.6 1.5) (drill 0.9) (layers *.Cu *.Mask)
      (net 20 "Net-(J1-Pad1)"))
    (pad 2 thru_hole circle (at -3.175 0 270) (size 1.6 1.6) (drill 0.9) (layers *.Cu *.Mask)
      (net 20 "Net-(J1-Pad1)"))
    (pad 3 thru_hole circle (at -1.905 2.54 270) (size 1.6 1.6) (drill 0.9) (layers *.Cu *.Mask)
      (net 26 /RS485_B))
    (pad 4 thru_hole circle (at -0.635 0 270) (size 1.6 1.6) (drill 0.9) (layers *.Cu *.Mask)
      (net 26 /RS485_B))
    (pad 5 thru_hole circle (at 0.635 2.54 270) (size 1.6 1.6) (drill 0.9) (layers *.Cu *.Mask)
      (net 25 /RS485_A))
    (pad 6 thru_hole circle (at 1.905 0 270) (size 1.6 1.6) (drill 0.9) (layers *.Cu *.Mask)
      (net 25 /RS485_A))
    (pad 7 thru_hole circle (at 3.175 2.54 270) (size 1.6 1.6) (drill 0.9) (layers *.Cu *.Mask)
      (net 21 GNDD))
    (pad 8 thru_hole circle (at 4.445 0 270) (size 1.6 1.6) (drill 0.9) (layers *.Cu *.Mask)
      (net 21 GNDD))
  )

  (module ESP8266:NodeMCU-LoLinV3 (layer F.Cu) (tedit 5AF0808C) (tstamp 5CA2ECCF)
    (at 104.14 124 270)
    (path /5CA2E391)
    (fp_text reference U1 (at 0 0 270) (layer F.SilkS)
      (effects (font (size 1 1) (thickness 0.15)))
    )
    (fp_text value "NodeMCU_1.0_(ESP-12E)" (at 0 -29.21 270) (layer F.Fab)
      (effects (font (size 1 1) (thickness 0.15)))
    )
    (fp_text user VIN (at -11.43 15.24 270) (layer F.SilkS)
      (effects (font (size 1 1) (thickness 0.15)))
    )
    (fp_text user G (at -11.43 12.7 270) (layer F.SilkS)
      (effects (font (size 1 1) (thickness 0.15)))
    )
    (fp_text user RST (at -11.43 10.16 270) (layer F.SilkS)
      (effects (font (size 1 1) (thickness 0.15)))
    )
    (fp_text user EN (at -11.43 7.62 270) (layer F.SilkS)
      (effects (font (size 1 1) (thickness 0.15)))
    )
    (fp_text user 3V (at -11.43 5.08 270) (layer F.SilkS)
      (effects (font (size 1 1) (thickness 0.15)))
    )
    (fp_text user G (at -11.43 2.54 270) (layer F.SilkS)
      (effects (font (size 1 1) (thickness 0.15)))
    )
    (fp_text user SK (at -11.43 0 270) (layer F.SilkS)
      (effects (font (size 1 1) (thickness 0.15)))
    )
    (fp_text user SO (at -11.43 -2.54 270) (layer F.SilkS)
      (effects (font (size 1 1) (thickness 0.15)))
    )
    (fp_text user SC (at -11.43 -5.08 270) (layer F.SilkS)
      (effects (font (size 1 1) (thickness 0.15)))
    )
    (fp_text user S1 (at -11.43 -7.62 270) (layer F.SilkS)
      (effects (font (size 1 1) (thickness 0.15)))
    )
    (fp_text user S2 (at -11.43 -10.16 270) (layer F.SilkS)
      (effects (font (size 1 1) (thickness 0.15)))
    )
    (fp_text user S3 (at -11.43 -12.7 270) (layer F.SilkS)
      (effects (font (size 1 1) (thickness 0.15)))
    )
    (fp_text user VU (at -11.43 -15.24 270) (layer F.SilkS)
      (effects (font (size 1 1) (thickness 0.15)))
    )
    (fp_text user G (at -11.43 -17.78 270) (layer F.SilkS)
      (effects (font (size 1 1) (thickness 0.15)))
    )
    (fp_text user A0 (at -11.43 -20.32 270) (layer F.SilkS)
      (effects (font (size 1 1) (thickness 0.15)))
    )
    (fp_text user 3V (at 11.43 15.24 270) (layer F.SilkS)
      (effects (font (size 1 1) (thickness 0.15)))
    )
    (fp_text user G (at 11.43 12.7 270) (layer F.SilkS)
      (effects (font (size 1 1) (thickness 0.15)))
    )
    (fp_text user TX (at 11.43 10.16 270) (layer F.SilkS)
      (effects (font (size 1 1) (thickness 0.15)))
    )
    (fp_text user RX (at 11.43 7.62 270) (layer F.SilkS)
      (effects (font (size 1 1) (thickness 0.15)))
    )
    (fp_text user D8 (at 11.43 5.08 270) (layer F.SilkS)
      (effects (font (size 1 1) (thickness 0.15)))
    )
    (fp_text user D7 (at 11.43 2.54 270) (layer F.SilkS)
      (effects (font (size 1 1) (thickness 0.15)))
    )
    (fp_text user D6 (at 11.43 0 270) (layer F.SilkS)
      (effects (font (size 1 1) (thickness 0.15)))
    )
    (fp_text user D5 (at 11.43 -2.54 270) (layer F.SilkS)
      (effects (font (size 1 1) (thickness 0.15)))
    )
    (fp_text user G (at 11.43 -5.08 270) (layer F.SilkS)
      (effects (font (size 1 1) (thickness 0.15)))
    )
    (fp_text user 3V (at 11.43 -7.62 270) (layer F.SilkS)
      (effects (font (size 1 1) (thickness 0.15)))
    )
    (fp_text user D4 (at 11.43 -10.16 270) (layer F.SilkS)
      (effects (font (size 1 1) (thickness 0.15)))
    )
    (fp_text user D3 (at 11.43 -12.7 270) (layer F.SilkS)
      (effects (font (size 1 1) (thickness 0.15)))
    )
    (fp_text user D2 (at 11.43 -15.24 270) (layer F.SilkS)
      (effects (font (size 1 1) (thickness 0.15)))
    )
    (fp_text user D1 (at 11.43 -17.78 270) (layer F.SilkS)
      (effects (font (size 1 1) (thickness 0.15)))
    )
    (fp_text user D0 (at 11.43 -20.32 270) (layer F.SilkS)
      (effects (font (size 1 1) (thickness 0.15)))
    )
    (fp_circle (center 12.7 24.13) (end 13.97 22.86) (layer F.SilkS) (width 0.15))
    (fp_circle (center -12.7 24.13) (end -11.43 22.86) (layer F.SilkS) (width 0.15))
    (fp_circle (center -12.7 -27.94) (end -11.43 -29.21) (layer F.SilkS) (width 0.15))
    (fp_circle (center 12.7 -27.94) (end 13.97 -29.21) (layer F.SilkS) (width 0.15))
    (fp_line (start 15.25 -30.5) (end -14.75 -30.5) (layer F.SilkS) (width 0.15))
    (fp_line (start -14.75 -30.5) (end -15.25 -30.5) (layer F.SilkS) (width 0.15))
    (fp_line (start -15.25 -30.5) (end -15.25 26.5) (layer F.SilkS) (width 0.15))
    (fp_line (start -15.25 26.5) (end 15.25 26.5) (layer F.SilkS) (width 0.15))
    (fp_line (start 15.25 26.5) (end 15.25 -30.5) (layer F.SilkS) (width 0.15))
    (pad 1 thru_hole circle (at -13.97 -20.32 270) (size 1.524 1.524) (drill 0.762) (layers *.Cu *.Mask F.SilkS)
      (net 1 "Net-(U1-Pad1)"))
    (pad 2 thru_hole circle (at -13.97 -17.78 270) (size 1.524 1.524) (drill 0.762) (layers *.Cu *.Mask F.SilkS)
      (net 2 "Net-(U1-Pad2)"))
    (pad 3 thru_hole circle (at -13.97 -15.24 270) (size 1.524 1.524) (drill 0.762) (layers *.Cu *.Mask F.SilkS)
      (net 3 "Net-(U1-Pad3)"))
    (pad 4 thru_hole circle (at -13.97 -12.7 270) (size 1.524 1.524) (drill 0.762) (layers *.Cu *.Mask F.SilkS)
      (net 4 "Net-(U1-Pad4)"))
    (pad 5 thru_hole circle (at -13.97 -10.16 270) (size 1.524 1.524) (drill 0.762) (layers *.Cu *.Mask F.SilkS)
      (net 5 "Net-(U1-Pad5)"))
    (pad 6 thru_hole circle (at -13.97 -7.62 270) (size 1.524 1.524) (drill 0.762) (layers *.Cu *.Mask F.SilkS)
      (net 6 "Net-(U1-Pad6)"))
    (pad 7 thru_hole circle (at -13.97 -5.08 270) (size 1.524 1.524) (drill 0.762) (layers *.Cu *.Mask F.SilkS)
      (net 7 "Net-(U1-Pad7)"))
    (pad 8 thru_hole circle (at -13.97 -2.54 270) (size 1.524 1.524) (drill 0.762) (layers *.Cu *.Mask F.SilkS)
      (net 8 "Net-(U1-Pad8)"))
    (pad 9 thru_hole circle (at -13.97 0 270) (size 1.524 1.524) (drill 0.762) (layers *.Cu *.Mask F.SilkS)
      (net 9 "Net-(U1-Pad9)"))
    (pad 10 thru_hole circle (at -13.97 2.54 270) (size 1.524 1.524) (drill 0.762) (layers *.Cu *.Mask F.SilkS)
      (net 36 "Net-(U1-Pad10)"))
    (pad 11 thru_hole circle (at -13.97 5.08 270) (size 1.524 1.524) (drill 0.762) (layers *.Cu *.Mask F.SilkS)
      (net 39 "Net-(U1-Pad11)"))
    (pad 12 thru_hole circle (at -13.97 7.62 270) (size 1.524 1.524) (drill 0.762) (layers *.Cu *.Mask F.SilkS)
      (net 10 "Net-(U1-Pad12)"))
    (pad 13 thru_hole circle (at -13.97 10.16 270) (size 1.524 1.524) (drill 0.762) (layers *.Cu *.Mask F.SilkS)
      (net 11 "Net-(U1-Pad13)"))
    (pad 14 thru_hole circle (at -13.97 12.7 270) (size 1.524 1.524) (drill 0.762) (layers *.Cu *.Mask F.SilkS)
      (net 37 "Net-(U1-Pad14)"))
    (pad 15 thru_hole circle (at -13.97 15.24 270) (size 1.524 1.524) (drill 0.762) (layers *.Cu *.Mask F.SilkS)
      (net 20 "Net-(J1-Pad1)"))
    (pad 16 thru_hole circle (at 13.97 15.24 270) (size 1.524 1.524) (drill 0.762) (layers *.Cu *.Mask F.SilkS)
      (net 24 +3V3))
    (pad 17 thru_hole circle (at 13.97 12.7 270) (size 1.524 1.524) (drill 0.762) (layers *.Cu *.Mask F.SilkS)
      (net 38 "Net-(U1-Pad17)"))
    (pad 18 thru_hole circle (at 13.97 10.16 270) (size 1.524 1.524) (drill 0.762) (layers *.Cu *.Mask F.SilkS)
      (net 29 "Net-(J3-Pad2)"))
    (pad 19 thru_hole circle (at 13.97 7.62 270) (size 1.524 1.524) (drill 0.762) (layers *.Cu *.Mask F.SilkS)
      (net 30 "Net-(J2-Pad1)"))
    (pad 20 thru_hole circle (at 13.97 5.08 270) (size 1.524 1.524) (drill 0.762) (layers *.Cu *.Mask F.SilkS)
      (net 12 "Net-(U1-Pad20)"))
    (pad 21 thru_hole circle (at 13.97 2.54 270) (size 1.524 1.524) (drill 0.762) (layers *.Cu *.Mask F.SilkS)
      (net 13 "Net-(U1-Pad21)"))
    (pad 22 thru_hole circle (at 13.97 0 270) (size 1.524 1.524) (drill 0.762) (layers *.Cu *.Mask F.SilkS)
      (net 14 "Net-(U1-Pad22)"))
    (pad 23 thru_hole circle (at 13.97 -2.54 270) (size 1.524 1.524) (drill 0.762) (layers *.Cu *.Mask F.SilkS)
      (net 15 "Net-(U1-Pad23)"))
    (pad 24 thru_hole circle (at 13.97 -5.08 270) (size 1.524 1.524) (drill 0.762) (layers *.Cu *.Mask F.SilkS)
      (net 21 GNDD))
    (pad 25 thru_hole circle (at 13.97 -7.62 270) (size 1.524 1.524) (drill 0.762) (layers *.Cu *.Mask F.SilkS)
      (net 16 "Net-(U1-Pad25)"))
    (pad 26 thru_hole circle (at 13.97 -10.16 270) (size 1.524 1.524) (drill 0.762) (layers *.Cu *.Mask F.SilkS)
      (net 17 "Net-(U1-Pad26)"))
    (pad 27 thru_hole circle (at 13.97 -12.7 270) (size 1.524 1.524) (drill 0.762) (layers *.Cu *.Mask F.SilkS)
      (net 18 "Net-(U1-Pad27)"))
    (pad 28 thru_hole circle (at 13.97 -15.24 270) (size 1.524 1.524) (drill 0.762) (layers *.Cu *.Mask F.SilkS)
      (net 19 "Net-(U1-Pad28)"))
    (pad 29 thru_hole circle (at 13.97 -17.78 270) (size 1.524 1.524) (drill 0.762) (layers *.Cu *.Mask F.SilkS)
      (net 34 /LED_COM))
    (pad 30 thru_hole circle (at 13.97 -20.32 270) (size 1.524 1.524) (drill 0.762) (layers *.Cu *.Mask F.SilkS)
      (net 31 /LED_WIFI))
  )

  (module snektek_lib:TTL_RS485 (layer F.Cu) (tedit 5CA2E272) (tstamp 5CA2E4C8)
    (at 152.4 149 180)
    (path /5CA2E306)
    (fp_text reference U2 (at 2.54 8.89 180) (layer F.SilkS)
      (effects (font (size 1 1) (thickness 0.15)))
    )
    (fp_text value TTL_RS485 (at 3.81 -8.89 180) (layer F.Fab)
      (effects (font (size 1 1) (thickness 0.15)))
    )
    (fp_line (start 0 7.62) (end 43.18 7.62) (layer F.SilkS) (width 0.15))
    (fp_line (start 43.18 7.62) (end 43.18 -7.62) (layer F.SilkS) (width 0.15))
    (fp_line (start 43.18 -7.62) (end 0 -7.62) (layer F.SilkS) (width 0.15))
    (fp_line (start 0 -7.62) (end 0 7.62) (layer F.SilkS) (width 0.15))
    (pad 1 thru_hole roundrect (at 43.18 -3.81 180) (size 4 2) (drill 1) (layers *.Cu *.Mask) (roundrect_rratio 0.25)
      (net 21 GNDD))
    (pad 2 thru_hole roundrect (at 43.18 -1.27 180) (size 4 2) (drill 1) (layers *.Cu *.Mask) (roundrect_rratio 0.25)
      (net 22 "Net-(J2-Pad2)"))
    (pad 3 thru_hole roundrect (at 43.18 1.27 180) (size 4 2) (drill 1) (layers *.Cu *.Mask) (roundrect_rratio 0.25)
      (net 23 "Net-(J3-Pad1)"))
    (pad 4 thru_hole roundrect (at 43.18 3.81 180) (size 4 2) (drill 0.762) (layers *.Cu *.Mask) (roundrect_rratio 0.25)
      (net 24 +3V3))
    (pad 5 thru_hole roundrect (at 0 3.81 180) (size 5 3) (drill 1.2) (layers *.Cu *.Mask) (roundrect_rratio 0.25)
      (net 25 /RS485_A))
    (pad 6 thru_hole roundrect (at 0 0 180) (size 5 3) (drill 1.2) (layers *.Cu *.Mask) (roundrect_rratio 0.25)
      (net 26 /RS485_B))
    (pad 7 thru_hole roundrect (at 0 -3.81 180) (size 5 3) (drill 1.2) (layers *.Cu *.Mask) (roundrect_rratio 0.25)
      (net 21 GNDD))
  )

  (gr_text SnekTek.com (at 73.914 132.08 90) (layer F.SilkS)
    (effects (font (size 4 4) (thickness 1)))
  )
  (gr_circle (center 161.5 156.5) (end 163.5 156.5) (layer Edge.Cuts) (width 0.15) (tstamp 5CA54072))
  (gr_circle (center 73.5 156.5) (end 75.5 156.5) (layer Edge.Cuts) (width 0.15) (tstamp 5CA54072))
  (gr_circle (center 161.5 108.5) (end 163.5 108.5) (layer Edge.Cuts) (width 0.15) (tstamp 5CA54072))
  (gr_circle (center 73.5 108.5) (end 75.5 108.5) (layer Edge.Cuts) (width 0.15))
  (gr_line (start 70 105) (end 70 160) (layer Edge.Cuts) (width 0.15))
  (gr_line (start 165 105) (end 70 105) (layer Edge.Cuts) (width 0.15))
  (gr_line (start 165 160) (end 165 105) (layer Edge.Cuts) (width 0.15))
  (gr_line (start 70 160) (end 165 160) (layer Edge.Cuts) (width 0.15))

  (segment (start 97.234 133.604) (end 101.6 137.97) (width 0.25) (layer F.Cu) (net 13))
  (segment (start 86.36 133.604) (end 97.234 133.604) (width 0.25) (layer F.Cu) (net 13))
  (segment (start 83.62 150.67) (end 83.064 150.114) (width 0.25) (layer F.Cu) (net 13))
  (segment (start 83.62 151.67) (end 83.62 150.67) (width 0.25) (layer F.Cu) (net 13))
  (segment (start 83.064 150.114) (end 78.232 150.114) (width 0.25) (layer F.Cu) (net 13))
  (segment (start 78.232 150.114) (end 76.708 148.59) (width 0.25) (layer F.Cu) (net 13))
  (segment (start 76.708 148.59) (end 76.708 143.256) (width 0.25) (layer F.Cu) (net 13))
  (segment (start 76.708 143.256) (end 86.36 133.604) (width 0.25) (layer F.Cu) (net 13))
  (segment (start 104.14 138.938) (end 104.14 137.97) (width 0.25) (layer F.Cu) (net 14))
  (segment (start 102.87 140.208) (end 104.14 138.938) (width 0.25) (layer F.Cu) (net 14))
  (segment (start 98.430762 140.208) (end 102.87 140.208) (width 0.25) (layer F.Cu) (net 14))
  (segment (start 88.02 151.67) (end 88.02 150.618762) (width 0.25) (layer F.Cu) (net 14))
  (segment (start 88.02 150.618762) (end 98.430762 140.208) (width 0.25) (layer F.Cu) (net 14))
  (segment (start 85.82 153.384) (end 87.085002 154.649002) (width 0.25) (layer F.Cu) (net 15))
  (segment (start 85.82 151.67) (end 85.82 153.384) (width 0.25) (layer F.Cu) (net 15))
  (segment (start 106.68 139.04763) (end 106.68 137.97) (width 0.25) (layer F.Cu) (net 15))
  (segment (start 87.085002 154.649002) (end 92.492998 154.649002) (width 0.25) (layer F.Cu) (net 15))
  (segment (start 92.492998 154.649002) (end 98.552 148.59) (width 0.25) (layer F.Cu) (net 15))
  (segment (start 98.552 148.59) (end 100.075002 148.59) (width 0.25) (layer F.Cu) (net 15))
  (segment (start 106.68 141.985002) (end 106.68 139.04763) (width 0.25) (layer F.Cu) (net 15))
  (segment (start 100.075002 148.59) (end 106.68 141.985002) (width 0.25) (layer F.Cu) (net 15))
  (segment (start 118.618001 137.208001) (end 119.38 137.97) (width 0.25) (layer F.Cu) (net 19))
  (segment (start 117.554 136.144) (end 118.618001 137.208001) (width 0.25) (layer F.Cu) (net 19))
  (segment (start 106.426 136.144) (end 117.554 136.144) (width 0.25) (layer F.Cu) (net 19))
  (segment (start 89.12 150.92) (end 98.816 141.224) (width 0.25) (layer F.Cu) (net 19))
  (segment (start 89.12 151.27) (end 89.12 150.92) (width 0.25) (layer F.Cu) (net 19))
  (segment (start 98.816 141.224) (end 103.886 141.224) (width 0.25) (layer F.Cu) (net 19))
  (segment (start 103.886 141.224) (end 105.41 139.7) (width 0.25) (layer F.Cu) (net 19))
  (segment (start 105.41 139.7) (end 105.41 137.16) (width 0.25) (layer F.Cu) (net 19))
  (segment (start 105.41 137.16) (end 106.426 136.144) (width 0.25) (layer F.Cu) (net 19))
  (segment (start 152.4 113.665) (end 153.67 114.935) (width 1) (layer F.Cu) (net 20))
  (segment (start 151.13 113.665) (end 152.4 113.665) (width 1) (layer F.Cu) (net 20))
  (segment (start 74.93 124) (end 88.9 110.03) (width 1) (layer F.Cu) (net 20))
  (segment (start 74.93 149.098) (end 74.93 124) (width 1) (layer F.Cu) (net 20))
  (segment (start 154.305 114.935) (end 162.56 123.19) (width 1) (layer F.Cu) (net 20))
  (segment (start 78.74 155.956) (end 78.74 152.908) (width 1) (layer F.Cu) (net 20))
  (segment (start 153.67 114.935) (end 154.305 114.935) (width 1) (layer F.Cu) (net 20))
  (segment (start 162.56 123.19) (end 162.56 148.59) (width 1) (layer F.Cu) (net 20))
  (segment (start 162.56 148.59) (end 152.4 158.75) (width 1) (layer F.Cu) (net 20))
  (segment (start 78.74 152.908) (end 74.93 149.098) (width 1) (layer F.Cu) (net 20))
  (segment (start 152.4 158.75) (end 81.534 158.75) (width 1) (layer F.Cu) (net 20))
  (segment (start 81.534 158.75) (end 78.74 155.956) (width 1) (layer F.Cu) (net 20))
  (segment (start 109.22 152.81) (end 152.4 152.81) (width 1) (layer F.Cu) (net 21))
  (segment (start 155 152.81) (end 160.02 147.79) (width 1) (layer F.Cu) (net 21))
  (segment (start 152.4 152.81) (end 155 152.81) (width 1) (layer F.Cu) (net 21))
  (segment (start 160.02 128.905) (end 153.67 122.555) (width 1) (layer F.Cu) (net 21))
  (segment (start 152.4 122.555) (end 151.13 121.285) (width 1) (layer F.Cu) (net 21))
  (segment (start 153.67 122.555) (end 152.4 122.555) (width 1) (layer F.Cu) (net 21))
  (segment (start 160.02 147.79) (end 160.02 137.16) (width 1) (layer F.Cu) (net 21))
  (segment (start 160.02 137.16) (end 160.02 128.905) (width 1) (layer F.Cu) (net 21))
  (segment (start 84.72 153.12) (end 84.72 151.87) (width 0.5) (layer F.Cu) (net 21))
  (segment (start 84.72 153.3) (end 84.72 153.12) (width 0.5) (layer F.Cu) (net 21))
  (segment (start 88.340001 156.920001) (end 84.72 153.3) (width 0.5) (layer F.Cu) (net 21))
  (segment (start 99.004001 156.920001) (end 88.340001 156.920001) (width 0.5) (layer F.Cu) (net 21))
  (segment (start 103.114002 152.81) (end 99.004001 156.920001) (width 0.5) (layer F.Cu) (net 21))
  (segment (start 109.22 152.81) (end 103.114002 152.81) (width 0.5) (layer F.Cu) (net 21))
  (segment (start 84.72 150.62) (end 84.72 151.87) (width 0.5) (layer F.Cu) (net 21))
  (segment (start 82.445 148.345) (end 84.72 150.62) (width 0.5) (layer F.Cu) (net 21))
  (segment (start 78.74 148.345) (end 82.445 148.345) (width 0.5) (layer F.Cu) (net 21))
  (segment (start 109.981999 138.731999) (end 109.22 137.97) (width 0.5) (layer F.Cu) (net 21))
  (segment (start 111.67001 140.42001) (end 109.981999 138.731999) (width 0.5) (layer F.Cu) (net 21))
  (segment (start 111.67001 151.163508) (end 111.67001 140.42001) (width 0.5) (layer F.Cu) (net 21))
  (segment (start 111.094228 151.73929) (end 111.67001 151.163508) (width 0.5) (layer F.Cu) (net 21))
  (segment (start 110.29071 151.73929) (end 111.094228 151.73929) (width 0.5) (layer F.Cu) (net 21))
  (segment (start 109.22 152.81) (end 110.29071 151.73929) (width 0.5) (layer F.Cu) (net 21))
  (segment (start 156.34 137.16) (end 160.02 137.16) (width 0.5) (layer F.Cu) (net 21))
  (segment (start 154.94 137.16) (end 156.34 137.16) (width 0.5) (layer F.Cu) (net 21))
  (segment (start 141.1 137.16) (end 154.94 137.16) (width 0.5) (layer B.Cu) (net 21))
  (segment (start 139.7 137.16) (end 141.1 137.16) (width 0.5) (layer B.Cu) (net 21))
  (segment (start 107.12 150.27) (end 109.22 150.27) (width 0.5) (layer B.Cu) (net 22))
  (segment (start 104.932081 150.27) (end 107.12 150.27) (width 0.5) (layer B.Cu) (net 22))
  (segment (start 102.802081 152.4) (end 104.932081 150.27) (width 0.5) (layer B.Cu) (net 22))
  (segment (start 101.6 152.4) (end 102.802081 152.4) (width 0.5) (layer B.Cu) (net 22))
  (segment (start 102.95 144.78) (end 101.6 144.78) (width 0.5) (layer B.Cu) (net 23))
  (segment (start 105.998 147.828) (end 102.95 144.78) (width 0.5) (layer B.Cu) (net 23))
  (segment (start 109.22 147.73) (end 109.122 147.828) (width 0.5) (layer B.Cu) (net 23))
  (segment (start 109.122 147.828) (end 105.998 147.828) (width 0.5) (layer B.Cu) (net 23))
  (segment (start 91.9 140.97) (end 89.661999 138.731999) (width 1) (layer B.Cu) (net 24))
  (segment (start 102.9 140.97) (end 91.9 140.97) (width 1) (layer B.Cu) (net 24))
  (segment (start 109.22 145.19) (end 107.12 145.19) (width 1) (layer B.Cu) (net 24))
  (segment (start 107.12 145.19) (end 102.9 140.97) (width 1) (layer B.Cu) (net 24))
  (segment (start 89.661999 138.731999) (end 88.9 137.97) (width 1) (layer B.Cu) (net 24))
  (segment (start 79.54 146.295) (end 78.74 146.295) (width 0.5) (layer F.Cu) (net 24))
  (segment (start 82.595 146.295) (end 79.54 146.295) (width 0.5) (layer F.Cu) (net 24))
  (segment (start 86.92 150.62) (end 82.595 146.295) (width 0.5) (layer F.Cu) (net 24))
  (segment (start 86.92 151.87) (end 86.92 150.62) (width 0.5) (layer F.Cu) (net 24))
  (segment (start 111.916 145.19) (end 109.22 145.19) (width 0.5) (layer B.Cu) (net 24))
  (segment (start 113.538 146.812) (end 111.916 145.19) (width 0.5) (layer B.Cu) (net 24))
  (via (at 113.538 146.812) (size 0.8) (drill 0.4) (layers F.Cu B.Cu) (net 24))
  (segment (start 86.92 141.97) (end 82.595 146.295) (width 0.5) (layer F.Cu) (net 24))
  (segment (start 86.92 139.95) (end 86.92 141.97) (width 0.5) (layer F.Cu) (net 24))
  (segment (start 88.9 137.97) (end 86.92 139.95) (width 0.5) (layer F.Cu) (net 24))
  (segment (start 117.602 150.876) (end 113.538 146.812) (width 0.5) (layer F.Cu) (net 24))
  (segment (start 140.462 150.876) (end 117.602 150.876) (width 0.5) (layer F.Cu) (net 24))
  (segment (start 152.146 139.192) (end 140.462 150.876) (width 0.5) (layer F.Cu) (net 24))
  (segment (start 154.94 128.515) (end 152.146 131.309) (width 0.5) (layer F.Cu) (net 24))
  (segment (start 152.146 131.309) (end 152.146 139.192) (width 0.5) (layer F.Cu) (net 24))
  (segment (start 152.4 145.19) (end 157.07 145.19) (width 0.5) (layer B.Cu) (net 25))
  (segment (start 157.07 145.19) (end 160.02 142.24) (width 0.5) (layer B.Cu) (net 25))
  (segment (start 160.02 126.365) (end 153.67 120.015) (width 0.5) (layer B.Cu) (net 25))
  (segment (start 160.02 142.24) (end 160.02 126.365) (width 0.5) (layer B.Cu) (net 25))
  (segment (start 152.4 118.745) (end 153.67 120.015) (width 0.5) (layer B.Cu) (net 25))
  (segment (start 151.13 118.745) (end 152.4 118.745) (width 0.5) (layer B.Cu) (net 25))
  (segment (start 152.4 116.205) (end 153.67 117.475) (width 0.5) (layer B.Cu) (net 26))
  (segment (start 151.13 116.205) (end 152.4 116.205) (width 0.5) (layer B.Cu) (net 26))
  (segment (start 153.67 117.475) (end 161.29 125.095) (width 0.5) (layer B.Cu) (net 26))
  (segment (start 161.29 125.095) (end 161.29 144.78) (width 0.5) (layer B.Cu) (net 26))
  (segment (start 157.07 149) (end 152.4 149) (width 0.5) (layer B.Cu) (net 26))
  (segment (start 161.29 144.78) (end 157.07 149) (width 0.5) (layer B.Cu) (net 26))
  (segment (start 91.392 135.382) (end 93.98 137.97) (width 0.5) (layer B.Cu) (net 29))
  (segment (start 88.138 135.382) (end 91.392 135.382) (width 0.5) (layer B.Cu) (net 29))
  (segment (start 86.36 137.16) (end 88.138 135.382) (width 0.5) (layer B.Cu) (net 29))
  (segment (start 86.36 139.192) (end 86.36 137.16) (width 0.5) (layer B.Cu) (net 29))
  (segment (start 99.06 144.78) (end 91.948 144.78) (width 0.5) (layer B.Cu) (net 29))
  (segment (start 91.948 144.78) (end 86.36 139.192) (width 0.5) (layer B.Cu) (net 29))
  (segment (start 97.71 152.4) (end 84.836 139.526) (width 0.5) (layer B.Cu) (net 30))
  (segment (start 99.06 152.4) (end 97.71 152.4) (width 0.5) (layer B.Cu) (net 30))
  (segment (start 84.836 139.526) (end 84.836 136.398) (width 0.5) (layer B.Cu) (net 30))
  (segment (start 84.836 136.398) (end 87.376 133.858) (width 0.5) (layer B.Cu) (net 30))
  (segment (start 92.408 133.858) (end 96.52 137.97) (width 0.5) (layer B.Cu) (net 30))
  (segment (start 87.376 133.858) (end 92.408 133.858) (width 0.5) (layer B.Cu) (net 30))
  (segment (start 139.7 128.515) (end 139.455 128.27) (width 0.5) (layer F.Cu) (net 31))
  (segment (start 124.46 140.97) (end 124.46 137.97) (width 0.5) (layer F.Cu) (net 31))
  (segment (start 129.286 145.796) (end 124.46 140.97) (width 0.5) (layer F.Cu) (net 31))
  (segment (start 140.433778 145.796) (end 129.286 145.796) (width 0.5) (layer F.Cu) (net 31))
  (segment (start 143.51 142.719778) (end 140.433778 145.796) (width 0.5) (layer F.Cu) (net 31))
  (segment (start 139.7 128.515) (end 143.51 132.325) (width 0.5) (layer F.Cu) (net 31))
  (segment (start 143.51 132.325) (end 143.51 142.719778) (width 0.5) (layer F.Cu) (net 31))
  (segment (start 139.7 134.62) (end 139.7 130.565) (width 0.5) (layer F.Cu) (net 32))
  (segment (start 147.32 134.62) (end 147.32 130.565) (width 0.5) (layer F.Cu) (net 33))
  (segment (start 149.86 131.055) (end 147.32 128.515) (width 0.5) (layer F.Cu) (net 34))
  (segment (start 149.86 139.192) (end 149.86 131.055) (width 0.5) (layer F.Cu) (net 34))
  (segment (start 141.224 147.828) (end 149.86 139.192) (width 0.5) (layer F.Cu) (net 34))
  (segment (start 128.016 147.828) (end 141.224 147.828) (width 0.5) (layer F.Cu) (net 34))
  (segment (start 121.92 137.97) (end 121.92 141.732) (width 0.5) (layer F.Cu) (net 34))
  (segment (start 121.92 141.732) (end 128.016 147.828) (width 0.5) (layer F.Cu) (net 34))
  (segment (start 154.94 134.62) (end 154.94 130.565) (width 0.5) (layer F.Cu) (net 35))

)
